Mini Project 01 – STA 9750 Submission Material
…
Task 2: Identify CUNY Schools

IPEDS <- IPEDS |>
  mutate(
    is_cuny = str_detect(institution_name, "CUNY")
  )

List of CUNY Schools

IPEDS |>
  filter(is_cuny) |>
  distinct(institution_name) |>
  arrange(institution_name)

# A tibble: 23 × 1
   institution_name                           
   <chr>                                      
 1 CUNY Bernard M Baruch College              
 2 CUNY Borough of Manhattan Community College
 3 CUNY Bronx Community College               
 4 CUNY Brooklyn College                      
 5 CUNY City College                          
 6 CUNY College of Staten Island              
 7 CUNY Graduate School and University Center 
 8 CUNY Hostos Community College              
 9 CUNY Hunter College                        
10 CUNY John Jay College of Criminal Justice  
# ℹ 13 more rows
…
List of California Public Universities

IPEDS |>
  filter(is_calpublic) |>
  distinct(institution_name) |>
  arrange(institution_name)

# A tibble: 35 × 1
   institution_name                                       
   <chr>                                                  
 1 California Polytechnic State University-San Luis Obispo
 2 California State Polytechnic University-Humboldt       
 3 California State Polytechnic University-Pomona         
 4 California State University Maritime Academy           
 5 California State University-Bakersfield                
 6 California State University-Channel Islands            
 7 California State University-Chico                      
 8 California State University-Dominguez Hills            
 9 California State University-East Bay                   
10 California State University-Fresno                     
# ℹ 25 more rows
…
