Mini-Project #02: How Do You Do ‘You Do You’? – STA 9750 Submission Material
…
glimpse(activities)

Rows: 477
Columns: 6
$ activity_code <chr> "010000", "010000", "010000", "010000", "010000", "01000…
$ activity_desc <chr> "010100", "010100", "010100", "010200", "010200", "01030…
$ code_level3   <chr> "010101", "010102", "010199", "010201", "010299", "01030…
$ task_level1   <chr> "Personal Care", "Personal Care", "Personal Care", "Pers…
$ task_level2   <chr> "Sleeping", "Sleeping", "Sleeping", "Grooming", "Groomin…
$ task_level3   <chr> "Sleeping", "Sleeplessness", "Other Sleeping", "Washing,…

resp |> count(survey_year)

# A tibble: 22 × 2
   survey_year     n
         <dbl> <int>
 1        2003 20720
 2        2004 13973
 3        2005 13038
 4        2006 12943
 5        2007 12248
 6        2008 12723
 7        2009 13133
 8        2010 13260
 9        2011 12479
10        2012 12443
# ℹ 12 more rows
…
