Mini-Project 04 - Going for the Gold – STA 9750 Submission Material
…
Warning: 1 parsing failure.
row col expected  actual
  1  -- a number Unknown

Code

games

# A tibble: 68 × 7
   season  year olympiad_id edition_id city        host_code edition_url 
   <chr>  <int>       <int>      <int> <chr>       <chr>     <chr>       
 1 Summer  1896           1          1 Athina      <NA>      /editions/1 
 2 Summer  1900           2          2 Paris       <NA>      /editions/2 
 3 Summer  1904           3          3 St. Louis   <NA>      /editions/3 
 4 Summer  1908           4          5 London      <NA>      /editions/5 
 5 Summer  1912           5          6 Stockholm   <NA>      /editions/6 
 6 Summer  1916           6         50 Berlin      <NA>      /editions/50
 7 Summer  1920           7          7 Antwerpen   <NA>      /editions/7 
 8 Summer  1924           8          8 Paris       <NA>      /editions/8 
 9 Summer  1928           9          9 Amsterdam   <NA>      /editions/9 
10 Summer  1932          10         10 Los Angeles <NA>      /editions/10
# ℹ 58 more rows
…
edition_sports <- games |>
  mutate(
    sports_data = map(
      edition_url,
      extract_sports
    )
  ) |>
  unnest(sports_data)

edition_sports

# A tibble: 1,421 × 9
   season  year olympiad_id edition_id city   host_code edition_url discipline  
   <chr>  <int>       <int>      <int> <chr>  <chr>     <chr>       <chr>       
 1 Summer  1896           1          1 Athina <NA>      /editions/1 Artistic Gy…
 2 Summer  1896           1          1 Athina <NA>      /editions/1 Fencing     
 3 Summer  1896           1          1 Athina <NA>      /editions/1 Weightlifti…
 4 Summer  1896           1          1 Athina <NA>      /editions/1 Athletics   
 5 Summer  1896           1          1 Athina <NA>      /editions/1 Shooting    
 6 Summer  1896           1          1 Athina <NA>      /editions/1 Wrestling   
 7 Summer  1896           1          1 Athina <NA>      /editions/1 Cycling Road
 8 Summer  1896           1          1 Athina <NA>      /editions/1 Swimming    
 9 Summer  1896           1          1 Athina <NA>      /editions/1 Cycling Tra…
10 Summer  1896           1          1 Athina <NA>      /editions/1 Tennis      
# ℹ 1,411 more rows
# ℹ 1 more variable: sport_url <chr>
…
medal_results_clean

# A tibble: 9,553 × 10
   season  year city   discipline  sport_url competitor_code  gold silver bronze
   <chr>  <int> <chr>  <chr>       <chr>     <chr>           <int>  <int>  <int>
 1 Summer  1896 Athina Artistic G… editions… GER                 5      3      2
 2 Summer  1896 Athina Artistic G… editions… GRE                 2      2      2
 3 Summer  1896 Athina Artistic G… editions… SUI                 1      2      0
 4 Summer  1896 Athina Fencing     editions… DEN                 0      0      1
 5 Summer  1896 Athina Fencing     editions… FRA                 1      2      0
 6 Summer  1896 Athina Fencing     editions… GRE                 2      1      0
 7 Summer  1896 Athina Weightlift… editions… DEN                 1      1      0
 8 Summer  1896 Athina Weightlift… editions… GBR                 1      1      0
 9 Summer  1896 Athina Weightlift… editions… GRE                 0      0      2
10 Summer  1896 Athina Athletics   editions… AUS                 2      0      0
# ℹ 9,543 more rows
# ℹ 1 more variable: total <int>
…
Identify Country Code Mismatches

Code

missing_country_codes <- medal_results_clean |>
  distinct(competitor_code) |>
  anti_join(
    world_countries,
    by = c("competitor_code" = "iso_a3")
  ) |>
  arrange(competitor_code)

missing_country_codes

# A tibble: 79 × 1
   competitor_code
   <chr>          
 1 AHO            
 2 AIN            
 3 ALG            
 4 AND            
 5 ANZ            
 6 BAH            
 7 BAR            
 8 BER            
 9 BOH            
10 BOT            
# ℹ 69 more rows
…
remaining_missing_codes <- medal_results_standardized |>
  distinct(competitor_iso3) |>
  anti_join(
    world_countries,
    by = c("competitor_iso3" = "iso_a3")
  ) |>
  arrange(competitor_iso3)

remaining_missing_codes

# A tibble: 65 × 1
   competitor_iso3
   <chr>          
 1 AHO            
 2 AIN            
 3 ALG            
 4 AND            
 5 ANZ            
 6 BAH            
 7 BAR            
 8 BER            
 9 BOH            
10 BOT            
# ℹ 55 more rows
…
usa_medals <- medal_results_standardized |>
  filter(competitor_iso3 == "USA") |>
  group_by(year, season) |>
  summarise(
    gold = sum(gold, na.rm = TRUE),
    silver = sum(silver, na.rm = TRUE),
    bronze = sum(bronze, na.rm = TRUE),
    total = sum(total, na.rm = TRUE),
    .groups = "drop"
  )

usa_medals

# A tibble: 44 × 6
    year season  gold silver bronze total
   <dbl> <chr>  <dbl>  <dbl>  <dbl> <dbl>
 1  1896 Summer    11      5      1    17
 2  1900 Summer    20     13     14    47
 3  1904 Summer    76     85     77   238
 4  1906 Winter    12      4      5    21
 5  1908 Summer    21     11     10    42
 6  1912 Summer    26     16     18    60
 7  1916 Summer     3      2      1     6
 8  1920 Summer    41     27     26    94
 9  1924 Summer    46     29     29   104
10  1928 Summer    44     34     31   109
# ℹ 34 more rows
…
host_games <- games |>
  left_join(host_city_codes, by = "city") |>
  filter(!is.na(host_iso3)) |>
  select(
    season,
    year,
    city,
    host_iso3
  )

host_games

# A tibble: 61 × 4
   season  year city        host_iso3
   <chr>  <int> <chr>       <chr>    
 1 Summer  1896 Athina      GRC      
 2 Summer  1900 Paris       FRA      
 3 Summer  1904 St. Louis   USA      
 4 Summer  1908 London      GBR      
 5 Summer  1912 Stockholm   SWE      
 6 Summer  1916 Berlin      DEU      
 7 Summer  1920 Antwerpen   BEL      
 8 Summer  1924 Paris       FRA      
 9 Summer  1928 Amsterdam   NLD      
10 Summer  1932 Los Angeles USA      
# ℹ 51 more rows
…
host_country_medals

# A tibble: 25 × 14
   season  year city  host_iso3  gold silver bronze total prior_gold prior_total
   <chr>  <dbl> <chr> <chr>     <dbl>  <dbl>  <dbl> <dbl>      <dbl>       <dbl>
 1 Summer  1976 Inns… AUT           2      2      3     7          4          12
 2 Summer  2012 Inns… AUT           6      4      3    13          2           7
 3 Summer  1988 Calg… CAN           3      4      7    14          1          14
 4 Summer  2010 Vanc… CAN          17      8     11    36          3          14
 5 Summer  1936 Garm… DEU          41     34     31   106         41         106
 6 Summer  1972 MÃ¼n… DEU          39     37     42   118         41         106
 7 Summer  1924 Paris FRA          14     13     13    40         30         107
 8 Summer  1924 Cham… FRA          14     13     13    40         14          40
 9 Summer  1968 Gren… FRA          11      6      7    24         14          40
10 Summer  1992 Albe… FRA          11     10     13    34         11          24
# ℹ 15 more rows
# ℹ 4 more variables: gold_change <dbl>, total_change <dbl>,
#   gold_pct_change <dbl>, total_pct_change <dbl>
…
Olympic host countries can sometimes benefit from the introduction of new sports or disciplines, especially when those sports align with existing national strengths. To explore this effect, I examine how the number of Olympic disciplines changes over time and whether expanding Olympic programs are associated with higher medal totals.

Code

discipline_counts <- edition_sports |>
  group_by(season, year) |>
  summarise(
    number_of_disciplines = n_distinct(discipline),
    .groups = "drop"
  )

discipline_counts

# A tibble: 45 × 3
   season  year number_of_disciplines
   <chr>  <int>                 <int>
 1 Summer  1896                    11
 2 Summer  1900                    33
 3 Summer  1904                    23
 4 Summer  1908                    26
 5 Summer  1912                    26
 6 Summer  1916                     2
 7 Summer  1920                    34
 8 Summer  1924                    43
 9 Summer  1928                    43
10 Summer  1932                    37
# ℹ 35 more rows
…
Olympic medals are not distributed evenly across countries. A relatively small number of nations account for a large share of total Olympic medals.

Code

country_total_medals <- medal_results_standardized |>
  group_by(competitor_iso3) |>
  summarise(
    total_medals = sum(total, na.rm = TRUE),
    .groups = "drop"
  ) |>
  arrange(desc(total_medals))

country_total_medals

# A tibble: 156 × 2
   competitor_iso3 total_medals
   <chr>                  <dbl>
 1 USA                     3220
 2 RUS                     2030
 3 DEU                     1969
 4 FRA                     1103
 5 GBR                     1087
 6 CHN                      951
 7 ITA                      913
 8 SWE                      754
 9 AUS                      686
10 JPN                      684
# ℹ 146 more rows
…
country_growth

# A tibble: 152 × 4
   competitor_iso3 first_medals latest_medals medal_growth
   <chr>                  <dbl>         <dbl>        <dbl>
 1 USA                       12           141          129
 2 CHN                       28           102           74
 3 FRA                       14            74           60
 4 GBR                       20            69           49
 5 AUS                        9            53           44
 6 ITA                       17            57           40
 7 NLD                        6            39           33
 8 CAN                        2            31           29
 9 JPN                       28            55           27
10 KOR                       17            44           27
# ℹ 142 more rows
…
host_gold_new_sport

# A tibble: 157 × 4
   season  year discipline          host_won_gold
   <chr>  <dbl> <chr>               <lgl>        
 1 Summer  1896 Artistic Gymnastics TRUE         
 2 Summer  1896 Athletics           TRUE         
 3 Summer  1896 Cycling Road        TRUE         
 4 Summer  1896 Cycling Track       FALSE        
 5 Summer  1896 Fencing             TRUE         
 6 Summer  1896 Shooting            TRUE         
 7 Summer  1896 Swimming            TRUE         
 8 Summer  1896 Tennis              FALSE        
 9 Summer  1896 Weightlifting       FALSE        
10 Summer  1896 Wrestling           FALSE        
# ℹ 147 more rows
…
usa_recent_trend

# A tibble: 21 × 3
    year total period        
   <dbl> <dbl> <chr>         
 1  1960    80 Historical Era
 2  1964    92 Historical Era
 3  1968   106 Historical Era
 4  1972    99 Historical Era
 5  1976   102 Historical Era
 6  1980    12 Historical Era
 7  1984   173 Historical Era
 8  1988    93 Historical Era
 9  1992   112 Historical Era
10  1994    13 Historical Era
# ℹ 11 more rows
…
